…
    ## [177]  493680  488400  483120  477840  472560  467280  462000  456720
    ## [185]  451440  446160  440880  435600  430320  425040  419760  414480
    ## [193]  409200  403920  398640  393360  388080  382800  377520  372240
    ## [201]  366960  361680  356400  351120  345840  340560  335280  330000
    ## [209]  324720  319440  314160  308880  303600  298320  293040  287760
    ## [217]  282480  277200  271920  266640  261360  256080  250800  245520
    ## [225]  240240  234960  229680  224400  219120  213840  208560  203280
    ## [233]  198000  192720  187440  182160  176880  171600  166320  161040
    ## [241]  155760  150480  145200  139920  134640  129360  124080  118800
    ## [249]  113520  108240  102960   97680   92400   87120   81840   76560
    ## [257]   71280   66000   60720   55440   50160   44880   39600   34320
    ## [265]   29040   23760   18480   13200    7920    2640
    ## 
    ## $TOP
    ## # A tibble: 78,300 × 3
    ##      ROW   COL    TOP
    ##    <int> <dbl>  <dbl>
    ## 1      1     1 2368.4
    ## 2      1     2 2368.4
    ## 3      1     3 2368.4
    ## 4      1     4 2368.4
    ## 5      1     5 2368.4
    ## 6      1     6 2368.4
    ## 7      1     7 2368.4
    ## 8      1     8 2368.4
    ## 9      1     9 2368.4
    ## 10     1    10 2368.4
    ## # ... with 78,290 more rows
    ## 
    ## $BOT
    ## # A tibble: 313,200 × 4
    ##      LAY   ROW   COL    BOT
    ##    <int> <int> <dbl>  <dbl>
    ## 1      1     1     1 2363.4
    ## 2      1     1     2 2363.4
    ## 3      1     1     3 2363.4
    ## 4      1     1     4 2363.4
    ## 5      1     1     5 2363.4
    ## 6      1     1     6 2363.4
    ## 7      1     1     7 2363.4
    ## 8      1     1     8 2363.4
    ## 9      1     1     9 2363.4
    ## 10     1     1    10 2363.4
    ## # ... with 313,190 more rows
    ## 
    ## $PERLEN
    ##  [1] 364635 364635 364635 364635 364635 364635 364635 364635 364635 364635
    ## [11] 364635 364635 364635 364635 364635 364635 364635 364635 364635    365
    ## 
    ## $NSTP
    ##  [1] 999 999 999 999 999 999 999 999 999 999 999 999 999 999 999 999 999
    ## [18] 999 999   1
…
    ## 
    ## $Layer
    ## NULL
    ## 
    ## $Mltarr
    ## NULL
    ## 
    ## $Zonarr
    ## NULL
    ## 
    ## $IZ
    ## NULL
    ## 
    ## $PROPS
    ## # A tibble: 313,200 × 10
    ##      LAY   ROW   COL    HK  HANI   VKA    Ss    Sy VKCBD WETDRY
    ##    <int> <int> <int> <dbl> <dbl> <dbl> <dbl> <dbl> <dbl>  <dbl>
    ## 1      1     1     1   2.5    NA  0.25  0.15  0.15    NA      0
    ## 2      1     1     2   2.5    NA  0.25  0.15  0.15    NA      0
    ## 3      1     1     3   2.5    NA  0.25  0.15  0.15    NA      0
    ## 4      1     1     4   2.5    NA  0.25  0.15  0.15    NA      0
    ## 5      1     1     5   2.5    NA  0.25  0.15  0.15    NA      0
    ## 6      1     1     6   2.5    NA  0.25  0.15  0.15    NA      0
    ## 7      1     1     7   2.5    NA  0.25  0.15  0.15    NA      0
    ## 8      1     1     8   2.5    NA  0.25  0.15  0.15    NA      0
    ## 9      1     1     9   2.5    NA  0.25  0.15  0.15    NA      0
    ## 10     1     1    10   2.5    NA  0.25  0.15  0.15    NA      0
    ## # ... with 313,190 more rows

The .lpf file has lots of really useful information. We can isolate this information using the "$" indexing operation.

``` r
p$PROPS
```

    ## # A tibble: 313,200 × 10
    ##      LAY   ROW   COL    HK  HANI   VKA    Ss    Sy VKCBD WETDRY
    ##    <int> <int> <int> <dbl> <dbl> <dbl> <dbl> <dbl> <dbl>  <dbl>
    ## 1      1     1     1   2.5    NA  0.25  0.15  0.15    NA      0
    ## 2      1     1     2   2.5    NA  0.25  0.15  0.15    NA      0
    ## 3      1     1     3   2.5    NA  0.25  0.15  0.15    NA      0
    ## 4      1     1     4   2.5    NA  0.25  0.15  0.15    NA      0
    ## 5      1     1     5   2.5    NA  0.25  0.15  0.15    NA      0
    ## 6      1     1     6   2.5    NA  0.25  0.15  0.15    NA      0
    ## 7      1     1     7   2.5    NA  0.25  0.15  0.15    NA      0
    ## 8      1     1     8   2.5    NA  0.25  0.15  0.15    NA      0
    ## 9      1     1     9   2.5    NA  0.25  0.15  0.15    NA      0
    ## 10     1     1    10   2.5    NA  0.25  0.15  0.15    NA      0
    ## # ... with 313,190 more rows
…
