…
## [113] 5280 5280 5280 5280 5280 5280 5280 5280 5280 5280 5280 5280 5280 5280
## [127] 5280 5280 5280 5280 5280 5280 5280 5280 5280 5280 5280 5280 5280 5280
## [141] 5280 5280 5280 5280 5280 5280 5280 5280 5280 5280 5280 5280 5280 5280
## [155] 5280 5280 5280 5280 5280 5280 5280 5280 5280 5280 5280 5280 5280 5280
## [169] 5280 5280 5280 5280 5280 5280 5280 5280 5280 5280 5280 5280 5280 5280
## [183] 5280 5280 5280 5280 5280 5280 5280 5280 5280 5280 5280 5280 5280 5280
## [197] 5280 5280 5280 5280 5280 5280 5280 5280 5280 5280 5280 5280 5280 5280
## [211] 5280 5280 5280 5280 5280 5280 5280 5280 5280 5280 5280 5280 5280 5280
## [225] 5280 5280 5280 5280 5280 5280 5280 5280 5280 5280 5280 5280 5280 5280
## [239] 5280 5280 5280 5280 5280 5280 5280 5280 5280 5280 5280 5280 5280 5280
## [253] 5280 5280 5280 5280 5280 5280 5280 5280 5280 5280 5280 5280 5280 5280
## [267] 5280 5280 5280 5280
## 
## $TOP
## # A tibble: 78,300 × 5
##      ROW   COL     X       Y    TOP
##    <int> <dbl> <dbl>   <dbl>  <dbl>
## 1      1     1  2640 1422960 2368.4
## 2      1     2  7920 1422960 2368.4
## 3      1     3 13200 1422960 2368.4
## 4      1     4 18480 1422960 2368.4
## 5      1     5 23760 1422960 2368.4
## 6      1     6 29040 1422960 2368.4
## 7      1     7 34320 1422960 2368.4
## 8      1     8 39600 1422960 2368.4
## 9      1     9 44880 1422960 2368.4
## 10     1    10 50160 1422960 2368.4
## # ... with 78,290 more rows
## 
## $BOT
## # A tibble: 313,200 × 6
##      LAY   ROW   COL     X       Y    BOT
##    <int> <int> <dbl> <dbl>   <dbl>  <dbl>
## 1      1     1     1  2640 1422960 2363.4
## 2      1     1     2  7920 1422960 2363.4
## 3      1     1     3 13200 1422960 2363.4
## 4      1     1     4 18480 1422960 2363.4
## 5      1     1     5 23760 1422960 2363.4
## 6      1     1     6 29040 1422960 2363.4
## 7      1     1     7 34320 1422960 2363.4
## 8      1     1     8 39600 1422960 2363.4
## 9      1     1     9 44880 1422960 2363.4
## 10     1     1    10 50160 1422960 2363.4
## # ... with 313,190 more rows
## 
## $PERLEN
##  [1] 364635 364635 364635 364635 364635 364635 364635 364635 364635 364635
## [11] 364635 364635 364635 364635 364635 364635 364635 364635 364635    365
## 
## $NSTP
##  [1] 999 999 999 999 999 999 999 999 999 999 999 999 999 999 999 999 999
## [18] 999 999   1
…
## 
## $Layer
## NULL
## 
## $Mltarr
## NULL
## 
## $Zonarr
## NULL
## 
## $IZ
## NULL
## 
## $PROPS
## # A tibble: 313,200 × 10
##      LAY   ROW   COL    HK  HANI   VKA    Ss    Sy VKCBD WETDRY
##    <int> <int> <int> <dbl> <dbl> <dbl> <dbl> <dbl> <dbl>  <dbl>
## 1      1     1     1   2.5    NA  0.25  0.15  0.15    NA      0
## 2      1     1     2   2.5    NA  0.25  0.15  0.15    NA      0
## 3      1     1     3   2.5    NA  0.25  0.15  0.15    NA      0
## 4      1     1     4   2.5    NA  0.25  0.15  0.15    NA      0
## 5      1     1     5   2.5    NA  0.25  0.15  0.15    NA      0
## 6      1     1     6   2.5    NA  0.25  0.15  0.15    NA      0
## 7      1     1     7   2.5    NA  0.25  0.15  0.15    NA      0
## 8      1     1     8   2.5    NA  0.25  0.15  0.15    NA      0
## 9      1     1     9   2.5    NA  0.25  0.15  0.15    NA      0
## 10     1     1    10   2.5    NA  0.25  0.15  0.15    NA      0
## # ... with 313,190 more rows

The .lpf file has lots of really useful information. We can isolate this information using the "$" indexing operation.

p$PROPS

## # A tibble: 313,200 × 10
##      LAY   ROW   COL    HK  HANI   VKA    Ss    Sy VKCBD WETDRY
##    <int> <int> <int> <dbl> <dbl> <dbl> <dbl> <dbl> <dbl>  <dbl>
## 1      1     1     1   2.5    NA  0.25  0.15  0.15    NA      0
## 2      1     1     2   2.5    NA  0.25  0.15  0.15    NA      0
## 3      1     1     3   2.5    NA  0.25  0.15  0.15    NA      0
## 4      1     1     4   2.5    NA  0.25  0.15  0.15    NA      0
## 5      1     1     5   2.5    NA  0.25  0.15  0.15    NA      0
## 6      1     1     6   2.5    NA  0.25  0.15  0.15    NA      0
## 7      1     1     7   2.5    NA  0.25  0.15  0.15    NA      0
## 8      1     1     8   2.5    NA  0.25  0.15  0.15    NA      0
## 9      1     1     9   2.5    NA  0.25  0.15  0.15    NA      0
## 10     1     1    10   2.5    NA  0.25  0.15  0.15    NA      0
## # ... with 313,190 more rows
…
